SEQ_DINO/simulation/qsim/SEQ_DINO.msim.vcd
$comment
	File created using the following command:
		vcd file SEQ_DINO.msim.vcd -direction
$end
$date
	Tue Mar 14 18:31:25 2023
$end
$version
	ModelSim Version 10.5b
$end
$timescale
	1ps
$end

$scope module seq_dino_vhd_vec_tst $end
$var wire 1 ! cont1 [6] $end
$var wire 1 " cont1 [5] $end
$var wire 1 # cont1 [4] $end
$var wire 1 $ cont1 [3] $end
$var wire 1 % cont1 [2] $end
$var wire 1 & cont1 [1] $end
$var wire 1 ' cont1 [0] $end
$var wire 1 ( flag1 $end
$var wire 1 ) limDO [9] $end
$var wire 1 * limDO [8] $end
$var wire 1 + limDO [7] $end
$var wire 1 , limDO [6] $end
$var wire 1 - limDO [5] $end
$var wire 1 . limDO [4] $end
$var wire 1 / limDO [3] $end
$var wire 1 0 limDO [2] $end
$var wire 1 1 limDO [1] $end
$var wire 1 2 limDO [0] $end
$var wire 1 3 limUP [9] $end
$var wire 1 4 limUP [8] $end
$var wire 1 5 limUP [7] $end
$var wire 1 6 limUP [6] $end
$var wire 1 7 limUP [5] $end
$var wire 1 8 limUP [4] $end
$var wire 1 9 limUP [3] $end
$var wire 1 : limUP [2] $end
$var wire 1 ; limUP [1] $end
$var wire 1 < limUP [0] $end
$var wire 1 = push $end
$var wire 1 > VSYNC $end

$scope module i1 $end
$var wire 1 ? gnd $end
$var wire 1 @ vcc $end
$var wire 1 A unknown $end
$var wire 1 B devoe $end
$var wire 1 C devclrn $end
$var wire 1 D devpor $end
$var wire 1 E ww_devoe $end
$var wire 1 F ww_devclrn $end
$var wire 1 G ww_devpor $end
$var wire 1 H ww_push $end
$var wire 1 I ww_VSYNC $end
$var wire 1 J ww_limUP [9] $end
$var wire 1 K ww_limUP [8] $end
$var wire 1 L ww_limUP [7] $end
$var wire 1 M ww_limUP [6] $end
$var wire 1 N ww_limUP [5] $end
$var wire 1 O ww_limUP [4] $end
$var wire 1 P ww_limUP [3] $end
$var wire 1 Q ww_limUP [2] $end
$var wire 1 R ww_limUP [1] $end
$var wire 1 S ww_limUP [0] $end
$var wire 1 T ww_limDO [9] $end
$var wire 1 U ww_limDO [8] $end
$var wire 1 V ww_limDO [7] $end
$var wire 1 W ww_limDO [6] $end
$var wire 1 X ww_limDO [5] $end
$var wire 1 Y ww_limDO [4] $end
$var wire 1 Z ww_limDO [3] $end
$var wire 1 [ ww_limDO [2] $end
$var wire 1 \ ww_limDO [1] $end
$var wire 1 ] ww_limDO [0] $end
$var wire 1 ^ ww_flag1 $end
$var wire 1 _ ww_cont1 [6] $end
$var wire 1 ` ww_cont1 [5] $end
$var wire 1 a ww_cont1 [4] $end
$var wire 1 b ww_cont1 [3] $end
$var wire 1 c ww_cont1 [2] $end
$var wire 1 d ww_cont1 [1] $end
$var wire 1 e ww_cont1 [0] $end
$var wire 1 f \~QUARTUS_CREATED_ADC1~_CHSEL_bus\ [4] $end
$var wire 1 g \~QUARTUS_CREATED_ADC1~_CHSEL_bus\ [3] $end
$var wire 1 h \~QUARTUS_CREATED_ADC1~_CHSEL_bus\ [2] $end
$var wire 1 i \~QUARTUS_CREATED_ADC1~_CHSEL_bus\ [1] $end
$var wire 1 j \~QUARTUS_CREATED_ADC1~_CHSEL_bus\ [0] $end
$var wire 1 k \~QUARTUS_CREATED_ADC2~_CHSEL_bus\ [4] $end
$var wire 1 l \~QUARTUS_CREATED_ADC2~_CHSEL_bus\ [3] $end
$var wire 1 m \~QUARTUS_CREATED_ADC2~_CHSEL_bus\ [2] $end
$var wire 1 n \~QUARTUS_CREATED_ADC2~_CHSEL_bus\ [1] $end
$var wire 1 o \~QUARTUS_CREATED_ADC2~_CHSEL_bus\ [0] $end
$var wire 1 p \VSYNC~inputclkctrl_INCLK_bus\ [3] $end
$var wire 1 q \VSYNC~inputclkctrl_INCLK_bus\ [2] $end
$var wire 1 r \VSYNC~inputclkctrl_INCLK_bus\ [1] $end
$var wire 1 s \VSYNC~inputclkctrl_INCLK_bus\ [0] $end
$var wire 1 t \~QUARTUS_CREATED_UNVM~~busy\ $end
$var wire 1 u \~QUARTUS_CREATED_ADC1~~eoc\ $end
$var wire 1 v \~QUARTUS_CREATED_ADC2~~eoc\ $end
$var wire 1 w \limUP[0]~output_o\ $end
$var wire 1 x \limUP[1]~output_o\ $end
$var wire 1 y \limUP[2]~output_o\ $end
$var wire 1 z \limUP[3]~output_o\ $end
$var wire 1 { \limUP[4]~output_o\ $end
$var wire 1 | \limUP[5]~output_o\ $end
$var wire 1 } \limUP[6]~output_o\ $end
$var wire 1 ~ \limUP[7]~output_o\ $end
$var wire 1 !! \limUP[8]~output_o\ $end
$var wire 1 "! \limUP[9]~output_o\ $end
$var wire 1 #! \limDO[0]~output_o\ $end
$var wire 1 $! \limDO[1]~output_o\ $end
$var wire 1 %! \limDO[2]~output_o\ $end
$var wire 1 &! \limDO[3]~output_o\ $end
$var wire 1 '! \limDO[4]~output_o\ $end
$var wire 1 (! \limDO[5]~output_o\ $end
$var wire 1 )! \limDO[6]~output_o\ $end
$var wire 1 *! \limDO[7]~output_o\ $end
$var wire 1 +! \limDO[8]~output_o\ $end
$var wire 1 ,! \limDO[9]~output_o\ $end
$var wire 1 -! \flag1~output_o\ $end
$var wire 1 .! \cont1[0]~output_o\ $end
$var wire 1 /! \cont1[1]~output_o\ $end
$var wire 1 0! \cont1[2]~output_o\ $end
$var wire 1 1! \cont1[3]~output_o\ $end
$var wire 1 2! \cont1[4]~output_o\ $end
$var wire 1 3! \cont1[5]~output_o\ $end
$var wire 1 4! \cont1[6]~output_o\ $end
$var wire 1 5! \VSYNC~input_o\ $end
$var wire 1 6! \VSYNC~inputclkctrl_outclk\ $end
$var wire 1 7! \posUP[0]~12_combout\ $end
$var wire 1 8! \~GND~combout\ $end
$var wire 1 9! \push~input_o\ $end
$var wire 1 :! \flag~q\ $end
$var wire 1 ;! \Add3~0_combout\ $end
$var wire 1 <! \Add2~0_combout\ $end
$var wire 1 =! \P1~1_combout\ $end
$var wire 1 >! \P1~2_combout\ $end
$var wire 1 ?! \Add2~2_combout\ $end
$var wire 1 @! \posUP[0]~14_combout\ $end
$var wire 1 A! \Add2~1\ $end
$var wire 1 B! \Add2~3_combout\ $end
$var wire 1 C! \Add2~5_combout\ $end
$var wire 1 D! \Add2~4\ $end
$var wire 1 E! \Add2~6_combout\ $end
$var wire 1 F! \Add2~8_combout\ $end
$var wire 1 G! \Add2~7\ $end
$var wire 1 H! \Add2~9_combout\ $end
$var wire 1 I! \Add2~11_combout\ $end
$var wire 1 J! \Add2~10\ $end
$var wire 1 K! \Add2~12_combout\ $end
$var wire 1 L! \Add2~14_combout\ $end
$var wire 1 M! \Add2~13\ $end
$var wire 1 N! \Add2~15_combout\ $end
$var wire 1 O! \Add2~17_combout\ $end
$var wire 1 P! \Add2~16\ $end
$var wire 1 Q! \Add2~18_combout\ $end
$var wire 1 R! \cont[6]~0_combout\ $end
$var wire 1 S! \P1~0_combout\ $end
$var wire 1 T! \posUP[0]~33_combout\ $end
$var wire 1 U! \posUP[0]~13\ $end
$var wire 1 V! \posUP[1]~15_combout\ $end
$var wire 1 W! \posUP[1]~16\ $end
$var wire 1 X! \posUP[2]~17_combout\ $end
$var wire 1 Y! \posUP[2]~18\ $end
$var wire 1 Z! \posUP[3]~19_combout\ $end
$var wire 1 [! \posUP[3]~20\ $end
$var wire 1 \! \posUP[4]~21_combout\ $end
$var wire 1 ]! \posUP[4]~22\ $end
$var wire 1 ^! \posUP[5]~23_combout\ $end
$var wire 1 _! \posUP[5]~24\ $end
$var wire 1 `! \posUP[6]~25_combout\ $end
$var wire 1 a! \posUP[6]~26\ $end
$var wire 1 b! \posUP[7]~27_combout\ $end
$var wire 1 c! \posUP[7]~28\ $end
$var wire 1 d! \posUP[8]~29_combout\ $end
$var wire 1 e! \posUP[8]~30\ $end
$var wire 1 f! \posUP[9]~31_combout\ $end
$var wire 1 g! \posDO[0]~10_combout\ $end
$var wire 1 h! \posDO[0]~feeder_combout\ $end
$var wire 1 i! \Add4~0_combout\ $end
$var wire 1 j! \Add4~2_combout\ $end
$var wire 1 k! \posDO[0]~11\ $end
$var wire 1 l! \posDO[1]~12_combout\ $end
$var wire 1 m! \posDO[1]~feeder_combout\ $end
$var wire 1 n! \Add6~0_combout\ $end
$var wire 1 o! \Add4~1\ $end
$var wire 1 p! \Add4~3_combout\ $end
$var wire 1 q! \Add4~5_combout\ $end
$var wire 1 r! \posDO[1]~13\ $end
$var wire 1 s! \posDO[2]~14_combout\ $end
$var wire 1 t! \Add4~4\ $end
$var wire 1 u! \Add4~6_combout\ $end
$var wire 1 v! \Add6~1\ $end
$var wire 1 w! \Add6~2_combout\ $end
$var wire 1 x! \Add4~8_combout\ $end
$var wire 1 y! \posDO[2]~15\ $end
$var wire 1 z! \posDO[3]~16_combout\ $end
$var wire 1 {! \Add6~3\ $end
$var wire 1 |! \Add6~4_combout\ $end
$var wire 1 }! \Add4~7\ $end
$var wire 1 ~! \Add4~9_combout\ $end
$var wire 1 !" \Add4~11_combout\ $end
$var wire 1 "" \posDO[3]~17\ $end
$var wire 1 #" \posDO[4]~18_combout\ $end
$var wire 1 $" \Add4~10\ $end
$var wire 1 %" \Add4~12_combout\ $end
$var wire 1 &" \Add6~5\ $end
$var wire 1 '" \Add6~6_combout\ $end
$var wire 1 (" \Add4~14_combout\ $end
$var wire 1 )" \posDO[4]~19\ $end
$var wire 1 *" \posDO[5]~20_combout\ $end
$var wire 1 +" \Add4~13\ $end
$var wire 1 ," \Add4~15_combout\ $end
$var wire 1 -" \Add6~7\ $end
$var wire 1 ." \Add6~8_combout\ $end
$var wire 1 /" \Add4~17_combout\ $end
$var wire 1 0" \posDO[5]~21\ $end
$var wire 1 1" \posDO[6]~22_combout\ $end
$var wire 1 2" \Add6~9\ $end
$var wire 1 3" \Add6~10_combout\ $end
$var wire 1 4" \Add4~16\ $end
$var wire 1 5" \Add4~18_combout\ $end
$var wire 1 6" \Add4~20_combout\ $end
$var wire 1 7" \posDO[6]~23\ $end
$var wire 1 8" \posDO[7]~24_combout\ $end
$var wire 1 9" \Add6~11\ $end
$var wire 1 :" \Add6~12_combout\ $end
$var wire 1 ;" \Add4~19\ $end
$var wire 1 <" \Add4~21_combout\ $end
$var wire 1 =" \Add4~23_combout\ $end
$var wire 1 >" \posDO[7]~25\ $end
$var wire 1 ?" \posDO[8]~26_combout\ $end
$var wire 1 @" \Add6~13\ $end
$var wire 1 A" \Add6~14_combout\ $end
$var wire 1 B" \Add4~22\ $end
$var wire 1 C" \Add4~24_combout\ $end
$var wire 1 D" \Add4~26_combout\ $end
$var wire 1 E" \posDO[8]~27\ $end
$var wire 1 F" \posDO[9]~28_combout\ $end
$var wire 1 G" \Add4~25\ $end
$var wire 1 H" \Add4~27_combout\ $end
$var wire 1 I" \Add6~15\ $end
$var wire 1 J" \Add6~16_combout\ $end
$var wire 1 K" \Add4~29_combout\ $end
$var wire 1 L" posUP [9] $end
$var wire 1 M" posUP [8] $end
$var wire 1 N" posUP [7] $end
$var wire 1 O" posUP [6] $end
$var wire 1 P" posUP [5] $end
$var wire 1 Q" posUP [4] $end
$var wire 1 R" posUP [3] $end
$var wire 1 S" posUP [2] $end
$var wire 1 T" posUP [1] $end
$var wire 1 U" posUP [0] $end
$var wire 1 V" posDO [9] $end
$var wire 1 W" posDO [8] $end
$var wire 1 X" posDO [7] $end
$var wire 1 Y" posDO [6] $end
$var wire 1 Z" posDO [5] $end
$var wire 1 [" posDO [4] $end
$var wire 1 \" posDO [3] $end
$var wire 1 ]" posDO [2] $end
$var wire 1 ^" posDO [1] $end
$var wire 1 _" posDO [0] $end
$var wire 1 `" cont [6] $end
$var wire 1 a" cont [5] $end
$var wire 1 b" cont [4] $end
$var wire 1 c" cont [3] $end
$var wire 1 d" cont [2] $end
$var wire 1 e" cont [1] $end
$var wire 1 f" cont [0] $end
$var wire 1 g" \ALT_INV_Add3~0_combout\ $end
$upscope $end
$upscope $end
$enddefinitions $end
#0
$dumpvars
0(
1=
0>
0?
1@
xA
1B
1C
1D
1E
1F
1G
1H
0I
0^
zt
zu
zv
0w
0x
0y
0z
0{
0|
0}
0~
0!!
0"!
0#!
0$!
0%!
0&!
0'!
0(!
0)!
0*!
0+!
0,!
0-!
0.!
0/!
00!
01!
02!
03!
04!
05!
06!
17!
08!
19!
0:!
0;!
1<!
0=!
0>!
0?!
1@!
0A!
1B!
0C!
1D!
1E!
0F!
0G!
1H!
0I!
1J!
1K!
0L!
0M!
1N!
0O!
1P!
1Q!
0R!
0S!
1T!
0U!
0V!
1W!
0X!
0Y!
0Z!
1[!
0\!
0]!
0^!
1_!
0`!
0a!
0b!
1c!
0d!
0e!
0f!
1g!
1h!
1i!
0j!
0k!
1l!
1m!
1n!
0o!
0p!
1q!
1r!
1s!
1t!
0u!
0v!
0w!
0x!
0y!
1z!
1{!
0|!
0}!
0~!
0!"
1""
1#"
1$"
0%"
0&"
1'"
1("
0)"
1*"
0+"
0,"
1-"
1."
1/"
10"
11"
02"
03"
14"
05"
06"
07"
18"
19"
0:"
0;"
0<"
0="
1>"
1?"
0@"
0A"
1B"
0C"
0D"
0E"
1F"
0G"
0H"
1I"
0J"
0K"
1g"
0J
0K
0L
0M
0N
0O
0P
0Q
0R
0S
0T
0U
0V
0W
0X
0Y
0Z
0[
0\
0]
0_
0`
0a
0b
0c
0d
0e
0L"
0M"
0N"
0O"
0P"
0Q"
0R"
0S"
0T"
0U"
0V"
0W"
0X"
0Y"
0Z"
0["
0\"
0]"
0^"
0_"
0`"
0a"
0b"
0c"
0d"
0e"
0f"
1p
1q
1r
0s
0f
0g
0h
0i
0j
0k
0l
0m
0n
0o
0!
0"
0#
0$
0%
0&
0'
0)
0*
0+
0,
0-
0.
0/
00
01
02
03
04
05
06
07
08
09
0:
0;
0<
$end
#5000
1>
1I
15!
1s
16!
1R"
1P"
1N"
1M"
1^"
1["
1Z"
1(!
1'!
1$!
1!!
1~
1|
1z
0*"
00"
1,"
0#"
1)"
1%"
0l!
0r!
1p!
1d!
1A"
1b!
1:"
1^!
0."
12"
1Z!
1|!
1X
1Y
1\
1K
1L
1N
1P
1!"
13"
1="
1D"
0s!
1y!
0m!
1*"
0/"
01"
17"
11
1.
1-
19
17
15
14
08"
0>"
0z!
0""
16"
1#"
0?"
1E"
0F"
#10000
0>
0I
05!
0s
06!
#15000
1>
1I
15!
1s
16!
1\"
0Z"
1Y"
1X"
1W"
1+!
1*!
1)!
0(!
1&!
1?"
1C"
18"
1<"
11"
15"
0*"
0,"
1z!
1~!
1U
1V
1W
0X
1Z
1/
0-
1,
1+
1*
#20000
0>
0I
05!
0s
06!
#25000
1>
1I
15!
1s
16!
#30000
0>
0=
0I
0H
09!
05!
0s
1;!
0T!
0g"
1C!
1F!
1I!
1L!
1O!
1R!
1?!
0B!
0E!
0H!
0K!
0N!
0Q!
1V!
1X!
0Z!
0[!
1\!
0^!
0_!
1`!
0b!
0c!
0d!
1e!
1f!
06!
0f!
1d!
0`!
1a!
0\!
1]!
0R!
0O!
0L!
0I!
0F!
0C!
1^!
1b!
#35000
1>
1I
15!
1s
16!
1:!
1f"
1U"
1T"
1S"
0R"
1_"
0^"
0$!
1#!
0z
1y
1x
1w
1.!
1-!
1l!
1r!
0p!
0g!
1k!
0i!
1o!
1Z!
1[!
0|!
0X!
1Y!
1w!
0V!
0W!
0n!
1v!
07!
1U!
0<!
1A!
1=!
1j!
0\
1]
0P
1Q
1R
1S
1e
1^
1>!
1B!
0?!
1V!
0w!
0{!
1X!
1x!
0Z!
0[!
0!"
1\!
0]!
1p!
0l!
0r!
0h!
0q!
1s!
0y!
1m!
12
01
1<
1;
1:
09
1'
1(
0z!
0s!
1y!
0m!
0^!
0\!
1]!
1|!
1C!
0x!
1!"
1^!
1z!
#40000
0>
1=
0I
1H
19!
05!
0s
06!
#45000
1>
1I
15!
1s
16!
0f"
1e"
0U"
0_"
0#!
0w
1/!
0.!
1g!
0k!
1i!
0o!
17!
0U!
0j!
0B!
0D!
1<!
0A!
0]
0S
1d
0e
1B!
1D!
1?!
1E!
0C!
0V!
0p!
1l!
1r!
1h!
02
0<
0'
1&
1s!
0y!
1m!
1F!
0E!
1C!
0F!
0z!
#50000
0>
0I
05!
0s
06!
#55000
1>
1I
15!
1s
16!
1f"
1U"
0T"
1_"
1^"
1]"
0\"
0&!
1%!
1$!
1#!
0x
1w
1.!
1z!
1""
0~!
0s!
1y!
1u!
0l!
0r!
1p!
0g!
1k!
0i!
1o!
1V!
1W!
1n!
0v!
07!
1U!
1j!
0<!
1A!
0Z
1[
1\
1]
0R
1S
1e
0B!
0D!
0?!
0V!
0W!
1w!
1{!
0X!
0p!
0t!
1l!
0h!
1q!
1s!
0m!
0z!
0""
0#"
12
11
10
0/
1<
0;
1'
1#"
1m!
0u!
1}!
0|!
1x!
1X!
1E!
0C!
1F!
0!"
1~!
#60000
0>
0I
05!
0s
06!
#65000
1>
1I
15!
1s
16!
0f"
0e"
1d"
0U"
0_"
0#!
0w
10!
0/!
0.!
1g!
0k!
1i!
0o!
17!
0U!
0j!
0E!
1G!
1B!
1D!
1<!
0A!
0=!
0]
0S
1c
0d
0e
0B!
1?!
1E!
0G!
1C!
1H!
0F!
1V!
1W!
1p!
1t!
0l!
1h!
02
0<
0'
0&
1%
0m!
1u!
0}!
0X!
1I!
0H!
1F!
0C!
0I!
0~!
#70000
0>
0I
05!
0s
06!
#75000
1>
1I
15!
1s
16!
1f"
1U"
1T"
0S"
1_"
0^"
0$!
1#!
0y
1x
1w
1.!
1l!
1r!
0p!
0g!
1k!
0i!
1o!
1X!
0Y!
0w!
0V!
0W!
0n!
1v!
07!
1U!
1j!
0<!
1A!
1=!
0\
1]
0Q
1R
1S
1e
1B!
0?!
1V!
1w!
0X!
1Y!
0x!
1Z!
1[!
1p!
0l!
0r!
0h!
0q!
0s!
1m!
12
01
1<
1;
0:
1'
1s!
0m!
1\!
0]!
0Z!
0[!
1x!
1C!
0\!
1]!
0^!
1^!
#80000
0>
0I
05!
0s
06!
#85000
1>
1I
15!
1s
16!
0f"
1e"
0U"
0_"
0#!
0w
1/!
0.!
1g!
0k!
1i!
0o!
17!
0U!
0j!
0B!
0D!
1<!
0A!
0]
0S
1d
0e
1B!
1D!
1?!
0E!
1G!
0C!
0V!
0p!
1l!
1r!
1h!
02
0<
0'
1&
0s!
1m!
1H!
0F!
1E!
0G!
1C!
0H!
1F!
1I!
0I!
#90000
0>
0I
05!
0s
06!
#95000
1>
1I
15!
1s
16!
1f"
1U"
0T"
1_"
1^"
0]"
0%!
1$!
1#!
0x
1w
1.!
1s!
0y!
0u!
0l!
0r!
1p!
0g!
1k!
0i!
1o!
1V!
1W!
1n!
0v!
07!
1U!
1j!
0<!
1A!
0[
1\
1]
0R
1S
1e
0B!
0D!
0?!
0V!
0W!
0w!
1X!
0Y!
0p!
0t!
1l!
0h!
1q!
0s!
1y!
0m!
1z!
1""
12
11
00
1<
0;
1'
0#"
0z!
0""
1m!
1u!
1Z!
1[!
0x!
0X!
1Y!
0E!
1G!
0C!
1H!
0F!
0Z!
0[!
1\!
0]!
1#"
0^!
0\!
1]!
1I!
1^!
#100000
0>
0I
05!
0s
06!
#105000
1>
1I
15!
1s
16!
0f"
0e"
0d"
1c"
0U"
0_"
0#!
0w
11!
00!
0/!
0.!
1g!
0k!
1i!
0o!
17!
0U!
0j!
0H!
0J!
1E!
0G!
1B!
1D!
1<!
0A!
0=!
0]
0S
1b
0c
0d
0e
0B!
1?!
0E!
1C!
1H!
1J!
1F!
1K!
0I!
1V!
1W!
1p!
1t!
0l!
1h!
02
0<
0'
0&
0%
1$
0m!
0u!
1X!
0Y!
1L!
0K!
1I!
0F!
0C!
0L!
1Z!
1[!
1\!
0]!
0^!
#110000
0>
0I
05!
0s
06!
#115000
1>
1I
15!
1s
16!
1f"
1U"
1T"
1S"
1R"
1Q"
0P"
1_"
0^"
0$!
1#!
0|
1{
1z
1y
1x
1w
1.!
1l!
1r!
0p!
0g!
1k!
0i!
1o!
1^!
1_!
1."
02"
0\!
1]!
0'"
0-"
0Z!
0[!
1|!
0X!
1Y!
1w!
0V!
0W!
0n!
1v!
07!
1U!
1j!
0<!
1A!
1=!
0\
1]
0N
1O
1P
1Q
1R
1S
1e
1B!
0?!
1V!
0w!
0{!
1X!
1x!
1Z!
1!"
1\!
0."
12"
0("
0^!
0_!
03"
1/"
1`!
0a!
1p!
0l!
0r!
0h!
0q!
1s!
0y!
1m!
12
01
1<
1;
1:
19
18
07
1'
1z!
1""
0s!
1y!
0m!
0b!
06"
0`!
1a!
13"
0/"
0|!
1&"
0x!
1C!
1'"
0!"
16"
1b!
0z!
0""
0#"
1#"
1("
#120000
0>
0I
05!
0s
06!
#125000
1>
1I
15!
1s
16!
0f"
1e"
0U"
0_"
0#!
0w
1/!
0.!
1g!
0k!
1i!
0o!
17!
0U!
0j!
0B!
0D!
1<!
0A!
0]
0S
1d
0e
1B!
1D!
1?!
1E!
0C!
0V!
0p!
1l!
1r!
1h!
02
0<
0'
1&
1s!
0y!
1m!
1F!
0E!
1C!
0F!
1z!
1""
0#"
#130000
0>
0I
05!
0s
06!
#135000
1>
1I
15!
1s
16!
1f"
1U"
0T"
1_"
1^"
1]"
1\"
0["
0'!
1&!
1%!
1$!
1#!
0x
1w
1.!
1#"
0)"
0%"
0z!
0""
1~!
0s!
1y!
1u!
0l!
0r!
1p!
0g!
1k!
0i!
1o!
1V!
1W!
1n!
0v!
07!
1U!
1j!
0<!
1A!
0Y
1Z
1[
1\
1]
0R
1S
1e
0B!
0D!
0?!
0V!
0W!
1w!
1{!
0X!
0p!
0t!
1l!
0h!
1q!
1s!
0m!
1z!
0#"
1)"
1*"
10"
12
11
10
1/
0.
1<
0;
1'
01"
0*"
00"
1m!
0u!
1}!
1|!
0&"
1x!
1X!
1E!
0C!
1F!
0'"
1!"
0~!
0$"
11"
1%"
0("
#140000
0>
0I
05!
0s
06!
#145000
1>
1I
15!
1s
16!
0f"
0e"
1d"
0U"
0_"
0#!
0w
10!
0/!
0.!
1g!
0k!
1i!
0o!
17!
0U!
0j!
0E!
1G!
1B!
1D!
1<!
0A!
0=!
0]
0S
1c
0d
0e
0B!
1?!
1E!
0G!
1C!
0H!
0J!
0F!
1V!
1W!
1p!
1t!
0l!
1h!
02
0<
0'
0&
1%
0m!
1u!
0}!
0X!
1K!
0I!
1H!
1J!
1F!
0C!
0K!
1I!
1L!
1~!
1$"
0%"
0L!
#150000
0>
0I
05!
0s
06!
#155000
1>
1I
15!
1s
16!
1f"
1U"
1T"
0S"
1_"
0^"
0$!
1#!
0y
1x
1w
1.!
1l!
1r!
0p!
0g!
1k!
0i!
1o!
1X!
0Y!
0w!
0V!
0W!
0n!
1v!
07!
1U!
1j!
0<!
1A!
1=!
0\
1]
0Q
1R
1S
1e
1B!
0?!
1V!
1w!
0X!
1Y!
0x!
0Z!
1p!
0l!
0r!
0h!
0q!
0s!
1m!
12
01
1<
1;
0:
1'
1s!
0m!
1Z!
1x!
1C!
#160000
0>
0I
05!
0s
06!
#165000
1>
1I
15!
1s
16!
0f"
1e"
0U"
0_"
0#!
0w
1/!
0.!
1g!
0k!
1i!
0o!
17!
0U!
0j!
0B!
0D!
1<!
0A!
0]
0S
1d
0e
1B!
1D!
1?!
0E!
1G!
0C!
0V!
0p!
1l!
1r!
1h!
02
0<
0'
1&
0s!
1m!
0H!
0J!
0F!
1E!
0G!
1C!
1H!
1J!
1F!
1K!
0I!
1L!
0K!
1I!
0L!
#170000
0>
0I
05!
0s
06!
#175000
1>
1I
15!
1s
16!
1f"
1U"
0T"
1_"
1^"
0]"
0%!
1$!
1#!
0x
1w
1.!
1s!
0y!
0u!
0l!
0r!
1p!
0g!
1k!
0i!
1o!
1V!
1W!
1n!
0v!
07!
1U!
1j!
0<!
1A!
0[
1\
1]
0R
1S
1e
0B!
0D!
0?!
0V!
0W!
0w!
1X!
0Y!
0p!
0t!
1l!
0h!
1q!
0s!
1y!
0m!
0z!
12
11
00
1<
0;
1'
1z!
1m!
1u!
0Z!
0x!
0X!
1Y!
0E!
1G!
0C!
0H!
0J!
0F!
1Z!
1K!
0I!
1L!
#180000
0>
0I
05!
0s
06!
#185000
1>
1I
15!
1s
16!
0f"
0e"
0d"
0c"
1b"
0U"
0_"
0#!
0w
12!
01!
00!
0/!
0.!
1g!
0k!
1i!
0o!
17!
0U!
0j!
0K!
1M!
1H!
1J!
1E!
0G!
1B!
1D!
1<!
0A!
0]
0S
1a
0b
0c
0d
0e
0B!
1?!
0E!
1C!
0H!
1F!
1K!
0M!
1I!
1N!
0L!
1V!
1W!
1p!
1t!
0l!
1h!
02
0<
0'
0&
0%
0$
1#
0m!
0u!
1X!
0Y!
1O!
0N!
1L!
0I!
0F!
0C!
0O!
0Z!
#190000
0>
0I
05!
0s
06!
#195000
1>
1I
15!
1s
16!
1f"
1U"
1T"
1S"
0R"
1_"
0^"
0$!
1#!
0z
1y
1x
1w
1.!
1l!
1r!
0p!
0g!
1k!
0i!
1o!
1Z!
1[!
0|!
0X!
1Y!
1w!
0V!
0W!
0n!
1v!
07!
1U!
1j!
0<!
1A!
0\
1]
0P
1Q
1R
1S
1e
1B!
0?!
1V!
0w!
0{!
1X!
1x!
0Z!
0[!
0!"
0\!
1p!
0l!
0r!
0h!
0q!
1s!
0y!
1m!
12
01
1<
1;
1:
09
1'
0z!
0s!
1y!
0m!
1\!
1|!
0x!
1C!
1!"
1z!
#200000
0>
0I
05!
0s
06!
#205000
1>
1I
15!
1s
16!
0f"
1e"
0U"
0_"
0#!
0w
1/!
0.!
1g!
0k!
1i!
0o!
17!
0U!
0j!
0B!
0D!
1<!
0A!
0]
0S
1d
0e
1B!
1D!
1?!
1E!
0C!
0V!
0p!
1l!
1r!
1h!
02
0<
0'
1&
1s!
0y!
1m!
1F!
0E!
1C!
0F!
0z!
#210000
0>
0I
05!
0s
06!
#215000
1>
1I
15!
1s
16!
1f"
1U"
0T"
1_"
1^"
1]"
0\"
0&!
1%!
1$!
1#!
0x
1w
1.!
1z!
1""
0~!
0s!
1y!
1u!
0l!
0r!
1p!
0g!
1k!
0i!
1o!
1V!
1W!
1n!
0v!
07!
1U!
1j!
0<!
1A!
0Z
1[
1\
1]
0R
1S
1e
0B!
0D!
0?!
0V!
0W!
1w!
1{!
0X!
0p!
0t!
1l!
0h!
1q!
1s!
0m!
0z!
0""
1#"
0)"
12
11
10
0/
1<
0;
1'
1*"
10"
0#"
1)"
1m!
0u!
1}!
0|!
1x!
1X!
1E!
0C!
1F!
0!"
1~!
0*"
00"
01"
11"
#220000
0>
0I
05!
0s
06!
#225000
1>
1I
15!
1s
16!
0f"
0e"
1d"
0U"
0_"
0#!
0w
10!
0/!
0.!
1g!
0k!
1i!
0o!
17!
0U!
0j!
0E!
1G!
1B!
1D!
1<!
0A!
0]
0S
1c
0d
0e
0B!
1?!
1E!
0G!
1C!
1H!
0F!
1V!
1W!
1p!
1t!
0l!
1h!
02
0<
0'
0&
1%
0m!
1u!
0}!
0X!
1I!
0H!
1F!
0C!
0I!
0~!
#230000
0>
0I
05!
0s
06!
#235000
1>
1I
15!
1s
16!
1f"
1U"
1T"
0S"
1_"
0^"
0$!
1#!
0y
1x
1w
1.!
1l!
1r!
0p!
0g!
1k!
0i!
1o!
1X!
0Y!
0w!
0V!
0W!
0n!
1v!
07!
1U!
1j!
0<!
1A!
0\
1]
0Q
1R
1S
1e
1B!
0?!
1V!
1w!
0X!
1Y!
0x!
1Z!
1[!
1p!
0l!
0r!
0h!
0q!
0s!
1m!
12
01
1<
1;
0:
1'
1s!
0m!
0\!
0Z!
0[!
1x!
1C!
1\!
#240000
0>
0I
05!
0s
06!
#245000
1>
1I
15!
1s
16!
0f"
1e"
0U"
0_"
0#!
0w
1/!
0.!
1g!
0k!
1i!
0o!
17!
0U!
0j!
0B!
0D!
1<!
0A!
0]
0S
1d
0e
1B!
1D!
1?!
0E!
1G!
0C!
0V!
0p!
1l!
1r!
1h!
02
0<
0'
1&
0s!
1m!
1H!
0F!
1E!
0G!
1C!
0H!
1F!
1I!
0I!
#250000
0>
0I
05!
0s
06!
#255000
1>
1I
15!
1s
16!
1f"
1U"
0T"
1_"
1^"
0]"
0%!
1$!
1#!
0x
1w
1.!
1s!
0y!
0u!
0l!
0r!
1p!
0g!
1k!
0i!
1o!
1V!
1W!
1n!
0v!
07!
1U!
1j!
0<!
1A!
0[
1\
1]
0R
1S
1e
0B!
0D!
0?!
0V!
0W!
0w!
1X!
0Y!
0p!
0t!
1l!
0h!
1q!
0s!
1y!
0m!
1z!
1""
12
11
00
1<
0;
1'
1#"
0)"
0z!
0""
1m!
1u!
1Z!
1[!
0x!
0X!
1Y!
0E!
1G!
0C!
1H!
0F!
0Z!
0[!
0\!
0#"
1)"
1*"
10"
01"
0*"
00"
1\!
1I!
11"
#260000
0>
0I
05!
0s
06!
#265000
1>
1I
15!
1s
16!
0f"
0e"
0d"
1c"
0U"
0_"
0#!
0w
11!
00!
0/!
0.!
1g!
0k!
1i!
0o!
17!
0U!
0j!
0H!
0J!
1E!
0G!
1B!
1D!
1<!
0A!
0]
0S
1b
0c
0d
0e
0B!
1?!
0E!
1C!
1H!
1J!
1F!
0K!
1M!
0I!
1V!
1W!
1p!
1t!
0l!
1h!
02
0<
0'
0&
0%
1$
0m!
0u!
1X!
0Y!
1N!
0L!
1K!
0M!
1I!
0F!
0C!
0N!
1L!
1O!
1Z!
1[!
0\!
0O!
#270000
0>
0I
05!
0s
06!
