CONT_V525/simulation/qsim/CONT_V525.msim.vcd
$comment
	File created using the following command:
		vcd file CONT_V525.msim.vcd -direction
$end
$date
	Wed Mar 08 21:55:22 2023
$end
$version
	ModelSim Version 10.5b
$end
$timescale
	1ps
$end

$scope module cont_v525_vhd_vec_tst $end
$var wire 1 ! clk $end
$var wire 1 " cuenta [9] $end
$var wire 1 # cuenta [8] $end
$var wire 1 $ cuenta [7] $end
$var wire 1 % cuenta [6] $end
$var wire 1 & cuenta [5] $end
$var wire 1 ' cuenta [4] $end
$var wire 1 ( cuenta [3] $end
$var wire 1 ) cuenta [2] $end
$var wire 1 * cuenta [1] $end
$var wire 1 + cuenta [0] $end
$var wire 1 , rst $end

$scope module i1 $end
$var wire 1 - gnd $end
$var wire 1 . vcc $end
$var wire 1 / unknown $end
$var wire 1 0 devoe $end
$var wire 1 1 devclrn $end
$var wire 1 2 devpor $end
$var wire 1 3 ww_devoe $end
$var wire 1 4 ww_devclrn $end
$var wire 1 5 ww_devpor $end
$var wire 1 6 ww_clk $end
$var wire 1 7 ww_rst $end
$var wire 1 8 ww_cuenta [9] $end
$var wire 1 9 ww_cuenta [8] $end
$var wire 1 : ww_cuenta [7] $end
$var wire 1 ; ww_cuenta [6] $end
$var wire 1 < ww_cuenta [5] $end
$var wire 1 = ww_cuenta [4] $end
$var wire 1 > ww_cuenta [3] $end
$var wire 1 ? ww_cuenta [2] $end
$var wire 1 @ ww_cuenta [1] $end
$var wire 1 A ww_cuenta [0] $end
$var wire 1 B \~QUARTUS_CREATED_ADC1~_CHSEL_bus\ [4] $end
$var wire 1 C \~QUARTUS_CREATED_ADC1~_CHSEL_bus\ [3] $end
$var wire 1 D \~QUARTUS_CREATED_ADC1~_CHSEL_bus\ [2] $end
$var wire 1 E \~QUARTUS_CREATED_ADC1~_CHSEL_bus\ [1] $end
$var wire 1 F \~QUARTUS_CREATED_ADC1~_CHSEL_bus\ [0] $end
$var wire 1 G \rst~inputclkctrl_INCLK_bus\ [3] $end
$var wire 1 H \rst~inputclkctrl_INCLK_bus\ [2] $end
$var wire 1 I \rst~inputclkctrl_INCLK_bus\ [1] $end
$var wire 1 J \rst~inputclkctrl_INCLK_bus\ [0] $end
$var wire 1 K \clk~inputclkctrl_INCLK_bus\ [3] $end
$var wire 1 L \clk~inputclkctrl_INCLK_bus\ [2] $end
$var wire 1 M \clk~inputclkctrl_INCLK_bus\ [1] $end
$var wire 1 N \clk~inputclkctrl_INCLK_bus\ [0] $end
$var wire 1 O \~QUARTUS_CREATED_GND~I_combout\ $end
$var wire 1 P \~QUARTUS_CREATED_UNVM~~busy\ $end
$var wire 1 Q \~QUARTUS_CREATED_ADC1~~eoc\ $end
$var wire 1 R \cuenta[0]~output_o\ $end
$var wire 1 S \cuenta[1]~output_o\ $end
$var wire 1 T \cuenta[2]~output_o\ $end
$var wire 1 U \cuenta[3]~output_o\ $end
$var wire 1 V \cuenta[4]~output_o\ $end
$var wire 1 W \cuenta[5]~output_o\ $end
$var wire 1 X \cuenta[6]~output_o\ $end
$var wire 1 Y \cuenta[7]~output_o\ $end
$var wire 1 Z \cuenta[8]~output_o\ $end
$var wire 1 [ \cuenta[9]~output_o\ $end
$var wire 1 \ \clk~input_o\ $end
$var wire 1 ] \clk~inputclkctrl_outclk\ $end
$var wire 1 ^ \count[0]~27_combout\ $end
$var wire 1 _ \rst~input_o\ $end
$var wire 1 ` \rst~inputclkctrl_outclk\ $end
$var wire 1 a \count[1]~9_combout\ $end
$var wire 1 b \count[1]~10\ $end
$var wire 1 c \count[2]~11_combout\ $end
$var wire 1 d \count[2]~12\ $end
$var wire 1 e \count[3]~13_combout\ $end
$var wire 1 f \count[3]~14\ $end
$var wire 1 g \count[4]~15_combout\ $end
$var wire 1 h \count[4]~16\ $end
$var wire 1 i \count[5]~17_combout\ $end
$var wire 1 j \count[5]~18\ $end
$var wire 1 k \count[6]~19_combout\ $end
$var wire 1 l \count[6]~20\ $end
$var wire 1 m \count[7]~21_combout\ $end
$var wire 1 n \count[7]~22\ $end
$var wire 1 o \count[8]~23_combout\ $end
$var wire 1 p \count[8]~24\ $end
$var wire 1 q \count[9]~25_combout\ $end
$var wire 1 r count [9] $end
$var wire 1 s count [8] $end
$var wire 1 t count [7] $end
$var wire 1 u count [6] $end
$var wire 1 v count [5] $end
$var wire 1 w count [4] $end
$var wire 1 x count [3] $end
$var wire 1 y count [2] $end
$var wire 1 z count [1] $end
$var wire 1 { count [0] $end
$upscope $end
$upscope $end
$enddefinitions $end
#0
$dumpvars
0!
0,
0-
1.
x/
10
11
12
13
14
15
06
07
0O
zP
zQ
0R
0S
0T
0U
0V
0W
0X
0Y
0Z
0[
0\
0]
1^
0_
0`
0a
0b
0c
1d
0e
0f
0g
1h
0i
0j
0k
1l
0m
0n
0o
1p
0q
08
09
0:
0;
0<
0=
0>
0?
0@
0A
0r
0s
0t
0u
0v
0w
0x
0y
0z
0{
1K
1L
1M
0N
1G
1H
1I
0J
0B
0C
0D
0E
0F
0"
0#
0$
0%
0&
0'
0(
0)
0*
0+
$end
#10000
1!
16
1\
1N
1]
#20000
0!
1,
06
17
1_
0\
1J
0N
0]
1`
#30000
1!
16
1\
1N
1]
1{
1R
0^
1a
1A
1+
#40000
0!
06
0\
0N
0]
#50000
1!
16
1\
1N
1]
0{
1z
1S
0R
1^
1@
0A
0+
1*
#60000
0!
06
0\
0N
0]
#70000
1!
16
1\
1N
1]
1{
1R
0^
0a
1b
1A
1c
1+
#80000
0!
06
0\
0N
0]
#90000
1!
16
1\
1N
1]
0{
0z
1y
1T
0S
0R
0c
0d
1^
0b
1?
0@
0A
1c
1d
1e
0+
0*
1)
0e
#100000
0!
06
0\
0N
0]
#110000
1!
16
1\
1N
1]
1{
1R
0^
1a
1A
1+
#120000
0!
06
0\
0N
0]
#130000
1!
16
1\
1N
1]
0{
1z
1S
0R
1^
1@
0A
0+
1*
#140000
0!
06
0\
0N
0]
#150000
1!
16
1\
1N
1]
1{
1R
0^
0a
1b
1A
0c
0d
1+
1e
#160000
0!
06
0\
0N
0]
#170000
1!
16
1\
1N
1]
0{
0z
0y
1x
1U
0T
0S
0R
0e
1f
1c
1d
1^
0b
1>
0?
0@
0A
0c
1e
0f
1g
0+
0*
0)
1(
0g
#180000
0!
06
0\
0N
0]
#190000
1!
16
1\
1N
1]
1{
1R
0^
1a
1A
1+
#200000
0!
06
0\
0N
0]
#210000
1!
16
1\
1N
1]
0{
1z
1S
0R
1^
1@
0A
0+
1*
#220000
0!
06
0\
0N
0]
#230000
1!
16
1\
1N
1]
1{
1R
0^
0a
1b
1A
1c
1+
#240000
0!
06
0\
0N
0]
#250000
1!
16
1\
1N
1]
0{
0z
1y
1T
0S
0R
0c
0d
1^
0b
1?
0@
0A
1c
1d
0e
1f
0+
0*
1)
1g
1e
0f
0g
#260000
0!
06
0\
0N
0]
#270000
1!
16
1\
1N
1]
1{
1R
0^
1a
1A
1+
#280000
0!
06
0\
0N
0]
#290000
1!
16
1\
1N
1]
0{
1z
1S
0R
1^
1@
0A
0+
1*
#300000
0!
06
0\
0N
0]
#310000
1!
16
1\
1N
1]
1{
1R
0^
0a
1b
1A
0c
0d
1+
0e
1f
1g
#320000
0!
06
0\
0N
0]
#330000
1!
16
1\
1N
1]
0{
0z
0y
0x
1w
1V
0U
0T
0S
0R
0g
0h
1e
0f
1c
1d
1^
0b
1=
0>
0?
0@
0A
0c
0e
1g
1h
1i
0+
0*
0)
0(
1'
0i
#340000
0!
06
0\
0N
0]
#350000
1!
16
1\
1N
1]
1{
1R
0^
1a
1A
1+
#360000
0!
06
0\
0N
0]
#370000
1!
16
1\
1N
1]
0{
1z
1S
0R
1^
1@
0A
0+
1*
#380000
0!
06
0\
0N
0]
#390000
1!
16
1\
1N
1]
1{
1R
0^
0a
1b
1A
1c
1+
#400000
0!
06
0\
0N
0]
#410000
1!
16
1\
1N
1]
0{
0z
1y
1T
0S
0R
0c
0d
1^
0b
1?
0@
0A
1c
1d
1e
0+
0*
1)
0e
#420000
0!
06
0\
0N
0]
#430000
1!
16
1\
1N
1]
1{
1R
0^
1a
1A
1+
#440000
0!
06
0\
0N
0]
#450000
1!
16
1\
1N
1]
0{
1z
1S
0R
1^
1@
0A
0+
1*
#460000
0!
06
0\
0N
0]
#470000
1!
16
1\
1N
1]
1{
1R
0^
0a
1b
1A
0c
0d
1+
1e
#480000
0!
06
0\
0N
0]
#490000
1!
16
1\
1N
1]
0{
0z
0y
1x
1U
0T
0S
0R
0e
1f
1c
1d
1^
0b
1>
0?
0@
0A
0c
1e
0f
0g
0h
0+
0*
0)
1(
1i
1g
1h
0i
#500000
0!
06
0\
0N
0]
#510000
1!
16
1\
1N
1]
1{
1R
0^
1a
1A
1+
#520000
0!
0,
06
07
0_
0\
0J
0N
0]
0`
0{
0x
0w
0V
0U
0R
0g
0e
1^
0a
0=
0>
0A
0+
0(
0'
#530000
1!
16
1\
1N
1]
#540000
0!
06
0\
0N
0]
#550000
1!
16
1\
1N
1]
#560000
0!
06
0\
0N
0]
#570000
1!
16
1\
1N
1]
#580000
0!
06
0\
0N
0]
#590000
1!
16
1\
1N
1]
#600000
0!
06
0\
0N
0]
#610000
1!
16
1\
1N
1]
#620000
0!
06
0\
0N
0]
#630000
1!
16
1\
1N
1]
#640000
0!
06
0\
0N
0]
#650000
1!
16
1\
1N
1]
#660000
0!
06
0\
0N
0]
#670000
1!
16
1\
1N
1]
#680000
0!
06
0\
0N
0]
#690000
1!
16
1\
1N
1]
#700000
0!
06
0\
0N
0]
#710000
1!
16
1\
1N
1]
#720000
0!
06
0\
0N
0]
#730000
1!
16
1\
1N
1]
#740000
0!
06
0\
0N
0]
#750000
1!
16
1\
1N
1]
#760000
0!
06
0\
0N
0]
#770000
1!
16
1\
1N
1]
#780000
0!
06
0\
0N
0]
#790000
1!
16
1\
1N
1]
#800000
0!
06
0\
0N
0]
#810000
1!
16
1\
1N
1]
#820000
0!
06
0\
0N
0]
#830000
1!
16
1\
1N
1]
#840000
0!
06
0\
0N
0]
#850000
1!
16
1\
1N
1]
#860000
0!
06
0\
0N
0]
#870000
1!
16
1\
1N
1]
#880000
0!
06
0\
0N
0]
#890000
1!
16
1\
1N
1]
#900000
0!
06
0\
0N
0]
#910000
1!
16
1\
1N
1]
#920000
0!
06
0\
0N
0]
#930000
1!
16
1\
1N
1]
#940000
0!
06
0\
0N
0]
#950000
1!
16
1\
1N
1]
#960000
0!
06
0\
0N
0]
#970000
1!
16
1\
1N
1]
#980000
0!
06
0\
0N
0]
#990000
1!
16
1\
1N
1]
